{
	"info": {
		"_postman_id": "4451141b-3438-4fb9-bbab-0bed0cfc1354",
		"name": "roles",
		"schema": "https://schema.getpostman.com/json/collection/v2.1.0/collection.json"
	},
	"item": [
		{
			"name": "localhost:8080/roles/1",
			"protocolProfileBehavior": {
				"disableBodyPruning": true
			},
			"request": {
				"method": "GET",
				"header": [
					{
						"key": "Content-Type",
						"name": "Content-Type",
						"value": "application/json",
						"type": "text"
					}
				],
				"body": {
					"mode": "raw",
					"raw": "{\n\t\"name\": \"admin\"\n}"
				},
				"url": {
					"raw": "localhost:8080/roles/1",
					"host": [
						"localhost"
					],
					"port": "8080",
					"path": [
						"roles",
						"1"
					]
				},
				"description": "Trouver un role avec son id"
			},
			"response": []
		},
		{
			"name": "localhost:8080/roles",
			"request": {
				"method": "POST",
				"header": [
					{
						"key": "Content-Type",
						"name": "Content-Type",
						"value": "application/json",
						"type": "text"
					}
				],
				"body": {
					"mode": "raw",
					"raw": "{\n\t\"name\": \"admin\"\n}"
				},
				"url": {
					"raw": "localhost:8080/roles",
					"host": [
						"localhost"
					],
					"port": "8080",
					"path": [
						"roles"
					]
				},
				"description": "Creer un role (ici admin) - le nom du role est unique"
			},
			"response": []
		},
		{
			"name": "localhost:8080/roles",
			"protocolProfileBehavior": {
				"disableBodyPruning": true
			},
			"request": {
				"method": "GET",
				"header": [
					{
						"key": "Content-Type",
						"name": "Content-Type",
						"value": "application/json",
						"type": "text"
					}
				],
				"body": {
					"mode": "raw",
					"raw": ""
				},
				"url": {
					"raw": "localhost:8080/roles",
					"host": [
						"localhost"
					],
					"port": "8080",
					"path": [
						"roles"
					]
				},
				"description": "Trouver tous les roles"
			},
			"response": []
		},
		{
			"name": "localhost:8080/roles",
			"request": {
				"method": "PUT",
				"header": [
					{
						"key": "Content-Type",
						"name": "Content-Type",
						"value": "application/json",
						"type": "text"
					}
				],
				"body": {
					"mode": "raw",
					"raw": "{\n        \"id\": 2,\n        \"name\": \"super role\"\n    }"
				},
				"url": {
					"raw": "localhost:8080/roles",
					"host": [
						"localhost"
					],
					"port": "8080",
					"path": [
						"roles"
					]
				},
				"description": "Mettre a jour un role en fonction de son id"
			},
			"response": []
		},
		{
			"name": "localhost:8080/roles/search/by-name/creator",
			"protocolProfileBehavior": {
				"disableBodyPruning": true
			},
			"request": {
				"method": "GET",
				"header": [
					{
						"key": "Content-Type",
						"name": "Content-Type",
						"value": "application/json",
						"type": "text"
					}
				],
				"body": {
					"mode": "raw",
					"raw": ""
				},
				"url": {
					"raw": "localhost:8080/roles/search/by-name/creator",
					"host": [
						"localhost"
					],
					"port": "8080",
					"path": [
						"roles",
						"search",
						"by-name",
						"creator"
					]
				},
				"description": "Trouver un role par son nom"
			},
			"response": []
		}
	]
}